…
bw_df
```

    ## # A tibble: 4,342 x 20
    ##    babysex bhead blength   bwt delwt fincome frace gaweeks malform menarche
    ##    <fct>   <int>   <int> <int> <int>   <int> <fct>   <dbl> <fct>      <int>
    ##  1 2          34      51  3629   177      35 1        39.9 0             13
    ##  2 1          34      48  3062   156      65 2        25.9 0             14
    ##  3 2          36      50  3345   148      85 1        39.9 0             12
    ##  4 1          34      52  3062   157      55 1        40   0             14
    ##  5 2          34      52  3374   156       5 1        41.6 0             13
    ##  6 1          33      52  3374   129      55 1        40.7 0             12
    ##  7 2          33      46  2523   126      96 2        40.3 0             14
    ##  8 2          33      49  2778   140       5 1        37.4 0             12
    ##  9 1          36      52  3515   146      85 1        40.3 0             11
    ## 10 1          33      50  3459   169      75 2        40.7 0             12
    ## # … with 4,332 more rows, and 10 more variables: mheight <int>,
    ## #   momage <int>, mrace <fct>, parity <int>, pnumlbw <int>, pnumsga <int>,
    ## #   ppbmi <dbl>, ppwt <int>, smoken <dbl>, wtgain <int>
…
weather_df
```

    ## # A tibble: 365 x 6
    ##    name           id          date        prcp  tmax  tmin
    ##    <chr>          <chr>       <date>     <dbl> <dbl> <dbl>
    ##  1 CentralPark_NY USW00094728 2017-01-01     0   8.9   4.4
    ##  2 CentralPark_NY USW00094728 2017-01-02    53   5     2.8
    ##  3 CentralPark_NY USW00094728 2017-01-03   147   6.1   3.9
    ##  4 CentralPark_NY USW00094728 2017-01-04     0  11.1   1.1
    ##  5 CentralPark_NY USW00094728 2017-01-05     0   1.1  -2.7
    ##  6 CentralPark_NY USW00094728 2017-01-06    13   0.6  -3.8
    ##  7 CentralPark_NY USW00094728 2017-01-07    81  -3.2  -6.6
    ##  8 CentralPark_NY USW00094728 2017-01-08     0  -3.8  -8.8
    ##  9 CentralPark_NY USW00094728 2017-01-09     0  -4.9  -9.9
    ## 10 CentralPark_NY USW00094728 2017-01-10     0   7.8  -6  
    ## # … with 355 more rows
…
boot_strap
```

    ## # A tibble: 5,000 x 2
    ##    r.squared log_b0xb1
    ##        <dbl>     <dbl>
    ##  1     0.912      2.00
    ##  2     0.916      1.98
    ##  3     0.916      1.99
    ##  4     0.901      1.99
    ##  5     0.919      2.00
    ##  6     0.911      2.01
    ##  7     0.920      1.99
    ##  8     0.910      2.01
    ##  9     0.911      1.99
    ## 10     0.906      2.03
    ## # … with 4,990 more rows
…
